{
  "shell_port": 38493,
  "iopub_port": 54685,
  "stdin_port": 59199,
  "control_port": 37687,
  "hb_port": 52905,
  "ip": "127.0.0.1",
  "key": "b6aa03dc-c378ab2a66e37460962c3af3",
  "transport": "tcp",
  "signature_scheme": "hmac-sha256",
  "kernel_name": ""
}