{
  "base_url": "/user/terziimourad-mt15-2021-cf7hx9ci/",
  "hostname": "0.0.0.0",
  "notebook_dir": "/home/jovyan",
  "password": false,
  "pid": 24,
  "port": 8888,
  "secure": false,
  "sock": "",
  "token": "_XnAOOguRPykPQ66GhV5hA",
  "url": "http://0.0.0.0:8888/user/terziimourad-mt15-2021-cf7hx9ci/"
}